\relax 
\@writefile{toc}{\contentsline {section}{\numberline {11}Остання лекція}{33}{}\protected@file@percent }
\@writefile{toc}{\contentsline {subsection}{\numberline {11.1}Планета мислячих істот є сад націй}{33}{}\protected@file@percent }
\@writefile{toc}{\contentsline {subsection}{\numberline {11.2}Пацифізм є запрошенням до свого знищення}{34}{}\protected@file@percent }
\@writefile{toc}{\contentsline {subsection}{\numberline {11.3}Мислення є ненависть до ігнорування реальності}{36}{}\protected@file@percent }
\@writefile{toc}{\contentsline {subsection}{\numberline {11.4}Дорогоцінність життя є практикою благородних}{37}{}\protected@file@percent }
\@writefile{toc}{\contentsline {subsection}{\numberline {11.5}Світогляди та ідеології є коіндуктивні стріми}{40}{}\protected@file@percent }
\@writefile{toc}{\contentsline {subsection}{\numberline {11.6}Закон причини та наслідку є безпомилковим}{45}{}\protected@file@percent }
\@setckpt{11.lection}{
\setcounter{page}{50}
\setcounter{equation}{0}
\setcounter{enumi}{0}
\setcounter{enumii}{0}
\setcounter{enumiii}{0}
\setcounter{enumiv}{0}
\setcounter{footnote}{1}
\setcounter{mpfootnote}{0}
\setcounter{part}{0}
\setcounter{section}{11}
\setcounter{subsection}{6}
\setcounter{subsubsection}{0}
\setcounter{paragraph}{0}
\setcounter{subparagraph}{0}
\setcounter{figure}{0}
\setcounter{table}{0}
\setcounter{cp@cntr}{0}
\setcounter{parentequation}{0}
}
