\relax 
\@writefile{toc}{\contentsline {section}{\numberline {2}Архітектура російського фашизму}{6}{}\protected@file@percent }
\@writefile{toc}{\contentsline {subsection}{\numberline {2.1}Теорія}{6}{}\protected@file@percent }
\@writefile{toc}{\contentsline {subsection}{\numberline {2.2}Нова етика}{10}{}\protected@file@percent }
\@setckpt{2.architecture}{
\setcounter{page}{13}
\setcounter{equation}{0}
\setcounter{enumi}{0}
\setcounter{enumii}{0}
\setcounter{enumiii}{0}
\setcounter{enumiv}{0}
\setcounter{footnote}{0}
\setcounter{mpfootnote}{0}
\setcounter{part}{0}
\setcounter{section}{2}
\setcounter{subsection}{2}
\setcounter{subsubsection}{0}
\setcounter{paragraph}{0}
\setcounter{subparagraph}{0}
\setcounter{figure}{0}
\setcounter{table}{0}
\setcounter{cp@cntr}{0}
\setcounter{parentequation}{0}
}
