\relax 
\@writefile{toc}{\contentsline {section}{\numberline {4}Сад націй}{15}{}\protected@file@percent }
\@writefile{toc}{\contentsline {subsection}{\numberline {4.1}Концепція просвітленого царства}{15}{}\protected@file@percent }
\@setckpt{4.garden}{
\setcounter{page}{19}
\setcounter{equation}{0}
\setcounter{enumi}{0}
\setcounter{enumii}{0}
\setcounter{enumiii}{0}
\setcounter{enumiv}{0}
\setcounter{footnote}{0}
\setcounter{mpfootnote}{0}
\setcounter{part}{0}
\setcounter{section}{4}
\setcounter{subsection}{1}
\setcounter{subsubsection}{0}
\setcounter{paragraph}{0}
\setcounter{subparagraph}{0}
\setcounter{figure}{0}
\setcounter{table}{0}
\setcounter{cp@cntr}{0}
\setcounter{parentequation}{0}
}
