\relax 
\@writefile{toc}{\newpage }
\@writefile{toc}{\contentsline {section}{\numberline {8}Мета Держави}{24}{}\protected@file@percent }
\@writefile{toc}{\contentsline {subsection}{\numberline {8.1}Неправильне розуміння освіти}{24}{}\protected@file@percent }
\@writefile{toc}{\contentsline {subsection}{\numberline {8.2}Освіта як мета держави}{25}{}\protected@file@percent }
\@writefile{toc}{\contentsline {subsection}{\numberline {8.3}Інститут формальної математики та філософії}{26}{}\protected@file@percent }
\@writefile{toc}{\contentsline {subsection}{\numberline {8.4}Інститут формальної літератури}{26}{}\protected@file@percent }
\@writefile{toc}{\contentsline {subsection}{\numberline {8.5}Інститут формального мистецтва}{26}{}\protected@file@percent }
\@writefile{toc}{\contentsline {subsection}{\numberline {8.6}Корінь нації}{28}{}\protected@file@percent }
\@setckpt{8.purpose}{
\setcounter{page}{30}
\setcounter{equation}{0}
\setcounter{enumi}{0}
\setcounter{enumii}{0}
\setcounter{enumiii}{0}
\setcounter{enumiv}{0}
\setcounter{footnote}{1}
\setcounter{mpfootnote}{0}
\setcounter{part}{0}
\setcounter{section}{8}
\setcounter{subsection}{6}
\setcounter{subsubsection}{0}
\setcounter{paragraph}{0}
\setcounter{subparagraph}{0}
\setcounter{figure}{0}
\setcounter{table}{0}
\setcounter{cp@cntr}{0}
\setcounter{parentequation}{0}
}
