\relax 
\providecommand\babel@aux[2]{}
\@nameuse{bbl@beforestart}
\catcode `"\active 
\babel@aux{russian}{}
\@input{copy.aux}
\@input{1.ban.aux}
\@input{2.architecture.aux}
\@input{3.denoncer.aux}
\@input{4.garden.aux}
\@input{5.witch.aux}
\@input{6.candle.aux}
\@input{7.wrath.aux}
\@input{8.purpose.aux}
\@input{9.oath.aux}
\@input{10.question.aux}
\@input{11.lection.aux}
\@input{12.littleness.aux}
\@input{13.karma.aux}
\@input{14.image.aux}
\gdef \@abspage@last{52}
